%YAML 1.1
%TAG !u! tag:unity3d.com,2011:
--- !u!1001 &992249452267378421
PrefabInstance:
  m_ObjectHideFlags: 0
  serializedVersion: 2
  m_Modification:
    m_TransformParent: {fileID: 0}
    m_Modifications:
    - target: {fileID: 309680823552823232, guid: 46d4d6a988e5b4a40af1f210ab057f1f, type: 3}
      propertyPath: m_RootOrder
      value: 0
      objectReference: {fileID: 0}
    - target: {fileID: 309680823552823232, guid: 46d4d6a988e5b4a40af1f210ab057f1f, type: 3}
      propertyPath: m_LocalScale.x
      value: 7
      objectReference: {fileID: 0}
    - target: {fileID: 309680823552823232, guid: 46d4d6a988e5b4a40af1f210ab057f1f, type: 3}
      propertyPath: m_LocalScale.y
      value: 7
      objectReference: {fileID: 0}
    - target: {fileID: 309680823552823232, guid: 46d4d6a988e5b4a40af1f210ab057f1f, type: 3}
      propertyPath: m_LocalPosition.x
      value: -4.47
      objectReference: {fileID: 0}
    - target: {fileID: 309680823552823232, guid: 46d4d6a988e5b4a40af1f210ab057f1f, type: 3}
      propertyPath: m_LocalPosition.y
      value: 1.23
      objectReference: {fileID: 0}
    - target: {fileID: 309680823552823232, guid: 46d4d6a988e5b4a40af1f210ab057f1f, type: 3}
      propertyPath: m_LocalPosition.z
      value: 0
      objectReference: {fileID: 0}
    - target: {fileID: 309680823552823232, guid: 46d4d6a988e5b4a40af1f210ab057f1f, type: 3}
      propertyPath: m_LocalRotation.w
      value: 1
      objectReference: {fileID: 0}
    - target: {fileID: 309680823552823232, guid: 46d4d6a988e5b4a40af1f210ab057f1f, type: 3}
      propertyPath: m_LocalRotation.x
      value: 0
      objectReference: {fileID: 0}
    - target: {fileID: 309680823552823232, guid: 46d4d6a988e5b4a40af1f210ab057f1f, type: 3}
      propertyPath: m_LocalRotation.y
      value: 0
      objectReference: {fileID: 0}
    - target: {fileID: 309680823552823232, guid: 46d4d6a988e5b4a40af1f210ab057f1f, type: 3}
      propertyPath: m_LocalRotation.z
      value: 0
      objectReference: {fileID: 0}
    - target: {fileID: 309680823552823232, guid: 46d4d6a988e5b4a40af1f210ab057f1f, type: 3}
      propertyPath: m_LocalEulerAnglesHint.x
      value: 0
      objectReference: {fileID: 0}
    - target: {fileID: 309680823552823232, guid: 46d4d6a988e5b4a40af1f210ab057f1f, type: 3}
      propertyPath: m_LocalEulerAnglesHint.y
      value: 0
      objectReference: {fileID: 0}
    - target: {fileID: 309680823552823232, guid: 46d4d6a988e5b4a40af1f210ab057f1f, type: 3}
      propertyPath: m_LocalEulerAnglesHint.z
      value: 0
      objectReference: {fileID: 0}
    - target: {fileID: 309680823552823234, guid: 46d4d6a988e5b4a40af1f210ab057f1f, type: 3}
      propertyPath: camera
      value: 
      objectReference: {fileID: 0}
    - target: {fileID: 309680823552823234, guid: 46d4d6a988e5b4a40af1f210ab057f1f, type: 3}
      propertyPath: pauseMenu
      value: 
      objectReference: {fileID: 0}
    - target: {fileID: 309680823552823234, guid: 46d4d6a988e5b4a40af1f210ab057f1f, type: 3}
      propertyPath: stompZone
      value: 
      objectReference: {fileID: 3308553069852060936}
    - target: {fileID: 309680823552823234, guid: 46d4d6a988e5b4a40af1f210ab057f1f, type: 3}
      propertyPath: _amplitude
      value: 1
      objectReference: {fileID: 0}
    - target: {fileID: 309680823552823234, guid: 46d4d6a988e5b4a40af1f210ab057f1f, type: 3}
      propertyPath: _frequency
      value: 1
      objectReference: {fileID: 0}
    - target: {fileID: 309680823552823237, guid: 46d4d6a988e5b4a40af1f210ab057f1f, type: 3}
      propertyPath: m_Name
      value: player Variant
      objectReference: {fileID: 0}
    - target: {fileID: 309680823552823237, guid: 46d4d6a988e5b4a40af1f210ab057f1f, type: 3}
      propertyPath: m_TagString
      value: Player
      objectReference: {fileID: 0}
    - target: {fileID: 6276810907200186464, guid: 46d4d6a988e5b4a40af1f210ab057f1f, type: 3}
      propertyPath: m_LocalPosition.x
      value: 0
      objectReference: {fileID: 0}
    - target: {fileID: 6276810907200186464, guid: 46d4d6a988e5b4a40af1f210ab057f1f, type: 3}
      propertyPath: m_LocalPosition.y
      value: -0.103
      objectReference: {fileID: 0}
    - target: {fileID: 7771370321441025442, guid: 46d4d6a988e5b4a40af1f210ab057f1f, type: 3}
      propertyPath: m_Name
      value: Image
      objectReference: {fileID: 0}
    - target: {fileID: 7870698516556448592, guid: 46d4d6a988e5b4a40af1f210ab057f1f, type: 3}
      propertyPath: text
      value: 
      objectReference: {fileID: 0}
    - target: {fileID: 7870698516556448592, guid: 46d4d6a988e5b4a40af1f210ab057f1f, type: 3}
      propertyPath: textLifes
      value: 
      objectReference: {fileID: 0}
    - target: {fileID: 8738141423758721669, guid: 46d4d6a988e5b4a40af1f210ab057f1f, type: 3}
      propertyPath: m_LocalScale.x
      value: 1.7965
      objectReference: {fileID: 0}
    - target: {fileID: 8738141423758721669, guid: 46d4d6a988e5b4a40af1f210ab057f1f, type: 3}
      propertyPath: m_LocalScale.y
      value: 1.7965
      objectReference: {fileID: 0}
    - target: {fileID: 8738141423758721669, guid: 46d4d6a988e5b4a40af1f210ab057f1f, type: 3}
      propertyPath: m_LocalPosition.x
      value: 0
      objectReference: {fileID: 0}
    - target: {fileID: 8738141423758721669, guid: 46d4d6a988e5b4a40af1f210ab057f1f, type: 3}
      propertyPath: m_LocalPosition.y
      value: 0.029
      objectReference: {fileID: 0}
    - target: {fileID: 8742805324071707115, guid: 46d4d6a988e5b4a40af1f210ab057f1f, type: 3}
      propertyPath: m_Color.b
      value: 0.71132076
      objectReference: {fileID: 0}
    - target: {fileID: 8742805324071707115, guid: 46d4d6a988e5b4a40af1f210ab057f1f, type: 3}
      propertyPath: m_Color.g
      value: 0.9443575
      objectReference: {fileID: 0}
    - target: {fileID: 8742805324071707115, guid: 46d4d6a988e5b4a40af1f210ab057f1f, type: 3}
      propertyPath: m_Color.r
      value: 1
      objectReference: {fileID: 0}
    m_RemovedComponents: []
  m_SourcePrefab: {fileID: 100100000, guid: 46d4d6a988e5b4a40af1f210ab057f1f, type: 3}
--- !u!1 &3308553069852060936 stripped
GameObject:
  m_CorrespondingSourceObject: {fileID: 2319207446145825789, guid: 46d4d6a988e5b4a40af1f210ab057f1f, type: 3}
  m_PrefabInstance: {fileID: 992249452267378421}
  m_PrefabAsset: {fileID: 0}
